[gd_scene load_steps=4 format=2]

[ext_resource path="res://src/Bullet.gd" type="Script" id=1]
[ext_resource path="res://assets/Pixelart/Bullet.png" type="Texture" id=2]

[sub_resource type="CapsuleShape2D" id=1]
radius = 1.6875
height = 1.625

[node name="Bullet" type="Area2D"]
script = ExtResource( 1 )
speed = 500

[node name="Sprite" type="Sprite" parent="."]
scale = Vector2( 0.5, 0.5 )
texture = ExtResource( 2 )

[node name="CollisionShape2D" type="CollisionShape2D" parent="."]
position = Vector2( 0.625, 0 )
rotation = 1.5708
shape = SubResource( 1 )

[node name="VisibilityNotifier2D" type="VisibilityNotifier2D" parent="."]
visible = false

[connection signal="body_entered" from="." to="." method="_on_body_entered"]
[connection signal="screen_exited" from="VisibilityNotifier2D" to="." method="_on_VisibilityNotifier2D_screen_exited"]
